{
  "project_info": {
    "project_number": "97444700734",
    "firebase_url": "https://tardezinha-cbf71.firebaseio.com",
    "project_id": "tardezinha-cbf71",
    "storage_bucket": "tardezinha-cbf71.appspot.com"
  },
  "client": [
    {
      "client_info": {
        "mobilesdk_app_id": "1:97444700734:android:e4c5a6e3bb3ef50d",
        "android_client_info": {
          "package_name": "com.tardezinha"
        }
      },
      "oauth_client": [
        {
          "client_id": "97444700734-0m9s5l57lmispcdvhg784pvvvp0k3r5k.apps.googleusercontent.com",
          "client_type": 1,
          "android_info": {
            "package_name": "com.tardezinha",
            "certificate_hash": "26fd537d54a94d53aee1be6b2f591060098258cc"
          }
        },
        {
          "client_id": "97444700734-bltqlrdp850cmb20nc09pdu58up634h3.apps.googleusercontent.com",
          "client_type": 3
        }
      ],
      "api_key": [
        {
          "current_key": "AIzaSyAZOq00pvMTBRcIRLoCvInfNUYji8bMZeQ"
        }
      ],
      "services": {
        "analytics_service": {
          "status": 1
        },
        "appinvite_service": {
          "status": 2,
          "other_platform_oauth_client": [
            {
              "client_id": "97444700734-bltqlrdp850cmb20nc09pdu58up634h3.apps.googleusercontent.com",
              "client_type": 3
            },
            {
              "client_id": "97444700734-1rfmb9vcbuc93vkg412vkjnjcjo6637n.apps.googleusercontent.com",
              "client_type": 2,
              "ios_info": {
                "bundle_id": "br.tardezinha"
              }
            }
          ]
        },
        "ads_service": {
          "status": 2
        }
      }
    }
  ],
  "configuration_version": "1"
}